{
  "meta": {
    "next": "https://api.meetup.com/2/groups?zip=80112&offset=1&format=json&lon=-104.86000061&category_id=34&page=200&radius=50.0&fields=&key=367b46423942324a5951727b36117323&lat=39.5800018311&order=id&desc=false",
    "method": "Groups",
    "total_count": 483,
    "link": "https://api.meetup.com/2/groups",
    "count": 200,
    "description": "None",
    "lon": -104.86000061035156,
    "id": "",
    "title": "Meetup Groups v2",
    "updated": 1460910837000,
    "url": "https://api.meetup.com/2/groups?zip=80112&offset=0&format=json&lon=-104.86000061&category_id=34&page=200&radius=50.0&fields=&key=367b46423942324a5951727b36117323&lat=39.5800018311&order=id&desc=false",
    "lat": 39.58000183105469
  },
  "results": [
    {
      "utc_offset": -21600000,
      "country": "US",
      "visibility": "public",
      "city": "Denver",
      "timezone": "US/Mountain",
      "created": 1035269436000,
      "topics": [
        {
          "urlkey": "anime",
          "name": "Anime",
          "id": 286
        },
        {
          "urlkey": "manga",
          "name": "Manga",
          "id": 2849
        },
        {
          "urlkey": "japanese-language",
          "name": "Japanese Language",
          "id": 25544
        },
        {
          "urlkey": "japanese-culture",
          "name": "Japanese Culture",
          "id": 30366
        }
      ],
      "link": "http://www.meetup.com/Denver-Anime/",
      "rating": 4.23,
      "description": "A place for Denver anime fans to meet and talk about their favorite (or not) anime. We also meet monthly-ish to watch anime, depending on interest and venue availability.",
      "lon": -105.08000183105469,
      "group_photo": {
        "highres_link": "http://photos4.meetupstatic.com/photos/event/2/2/b/highres_15660555.jpeg",
        "photo_id": 15660555,
        "photo_link": "http://photos4.meetupstatic.com/photos/event/2/2/b/600_15660555.jpeg",
        "thumb_link": "http://photos4.meetupstatic.com/photos/event/2/2/b/thumb_15660555.jpeg"
      },
      "join_mode": "open",
      "organizer": {
        "member_id": 25688,
        "name": "John",
        "photo": {
          "highres_link": "http://photos4.meetupstatic.com/photos/member/e/1/e/b/highres_1077835.jpeg",
          "photo_id": 1077835,
          "photo_link": "http://photos4.meetupstatic.com/photos/member/e/1/e/b/member_1077835.jpeg",
          "thumb_link": "http://photos2.meetupstatic.com/photos/member/e/1/e/b/thumb_1077835.jpeg"
        }
      },
      "members": 731,
      "name": "The Denver Anime Meetup Group",
      "id": 8843,
      "state": "CO",
      "urlname": "Denver-Anime",
      "category": {
        "name": "tech",
        "id": 34,
        "shortname": "tech"
      },
      "lat": 39.70000076293945,
      "who": "Anime Fans"
    }
  ]
}